{
    "description": "Our project aims to help provide easier access to healthcare in regards to cancer for people in “Cancer Alley” which is a nickname for the area along the Mississippi River between Baton Rouge and New Orleans. This area accounts for 25% of the petrochemical production in the USA and has significant amounts of pollution. This site has the locations for oncologists in each city, and information about clinical trials related to cancer happening in the area, for those who want to participate in trials or have access to more information about cancer related studies.",
    "members": [
        {
            "name": "Aryan Bhavesh Parikh",
            "gitlabId": "aryan.parikh02",
            "email": "aryan.parikh02@gmail.com",
            "intro": "I'm Aryan, a fourth year Computer Science major at UT Austin. In my free time, I love to dance and try out different recipes in the kitchen",
            "photo": "aryan.png",
            "team": "Backend",
            "numTests": "6"
        },
        {
            "name": "Emme Erwin",
            "gitlabId": "emilyerwin20",
            "email": "emilyerwin20@gmail.com",
            "intro": "I am a senior CS major at UT Austin. I love cats and reading.",
            "photo": "emme.png",
            "team": "Frontend",
            "numTests": "8"
        },
        {
            "name": "Hursh Jha",
            "gitlabId": "hursh.jha1",
            "email": "hursh.jha@gmail.com",
            "intro": "I'm a third year CS & Math major. I enjoy reading and playing various TCG's.",
            "photo": "hursh.png",
            "team": "Backend",
            "numTests": "6"
        },
        {
            "name": "Truc Tran",
            "gitlabId": "tructran1",
            "email": "tructran@utexas.edu",
            "intro": "I am a third-year CS major at the University of Texas at Austin. I enjoy listening to music and cooking.",
            "photo": "truc.png",
            "team": "Frontend",
            "numTests": "11"
        },
        {
            "name": "Twila Ternida",
            "gitlabId": "twilaternida",
            "email": "twilaternida2123@gmail.com",
            "intro": "I am a fourth-year CS major at UT Austin. I love birds and writing!",
            "photo": "twila.png",
            "team": "Frontend",
            "numTests": "3"
        }
    ],
    "data": [
        {
            "url": "https://www.cancer.gov/types",
            "name": "Cancer.gov",
            "how": "N/A for Phase 1"
        },
        {
            "url": "https://clinicaltrialsapi.cancer.gov/doc",
            "name": "Clinical Trials API",
            "how": "Using the API to get all active clinical trials within our region that have a primary aim of treatment"
        },
        {
            "url": "https://docs.datacommons.org/api/rest/v2/node",
            "name": "Data Commons",
            "how": "Using the /node endpoint for data on Census tracts, counties, and Zip codes. The /observations endpoint for population counts. We collected all the geographic IDs of locations in Louisiana, and filtered by the census tracts. "
        },

        {
            "url": "https://data.cms.gov/provider-data/docs",
            "name": "Centers for Medicare and Medicaid services",
            "how": "Getting a list of all healthcare providers in the US, filtering by providers who specialize in Oncology and Hematology in the state of Louisiana, which is our region"
        }
    ],
    "tools": [
        {
            "name": "React.js",
            "link": "https://react.dev/",
            "imgLink": "https://upload.wikimedia.org/wikipedia/commons/thumb/a/a7/React-icon.svg/2300px-React-icon.svg.png"
        },
        {
            "name": "Postman",
            "link": "https://www.postman.com/",
            "imgLink": "https://cdn.worldvectorlogo.com/logos/postman.svg"
        },
        {
            "name": "Gitlab API",
            "link": "https://docs.gitlab.com/ee/api/",
            "imgLink": "https://cdn.worldvectorlogo.com/logos/gitlab-3.svg"
        },
        {
            "name": "Visual Studio Code",
            "link": "https://code.visualstudio.com/",
            "imgLink": "https://cdn.worldvectorlogo.com/logos/visual-studio-code-1-1.svg"
        },
        {
            "name": "Zoom",
            "link": "https://zoom.us/",
            "imgLink": "https://img.freepik.com/premium-vector/round-zoom-logo-isolated-white-background_469489-904.jpg?w=2000"
        },
        {
            "name": "NameCheap",
            "link": "https://www.namecheap.com/?gclid=EAIaIQobChMIjtKhr9LN_QIV5GpvBB3tIQ31EAAYASAAEgI6BPD_BwE",
            "imgLink": "https://static-00.iconduck.com/assets.00/namecheap-icon-2048x2048-ft2h6a21.png"
        },
        {
            "name": "AWS",
            "link": "https://aws.amazon.com/amplify/?trk=66d9071f-eec2-471d-9fc0-c374dbda114d&sc_channel=ps&s_kwcid=AL!4422!3!646025317188!e!!g!!aws%20amplify&ef_id=EAIaIQobChMIgZXeodLN_QIV2WxvBB2AfAuzEAAYASAAEgKr8vD_BwE:G:s&s_kwcid=AL!4422!3!646025317188!e!!g!!aws%20amplify",
            "imgLink": "https://static-00.iconduck.com/assets.00/aws-icon-1024x1024-runl182z.png"
        },
        {
            "name": "MUI",
            "link": "https://mui.com/core/",
            "imgLink": "https://mui.com/static/logo.png"
        }
    ],
    "gitlabRepo": "https://gitlab.com/cs373-group-4/cancer-care/",
    "postmanAPI": "https://documenter.getpostman.com/view/11695219/2s9YJjSz2L"
}
